<?xml version="1.0" encoding="utf-8"?>
<!-- Generator: Adobe Illustrator 21.1.0, SVG Export Plug-In . SVG Version: 6.00 Build 0)  -->
<svg version="1.1" id="eps" xmlns="http://www.w3.org/2000/svg" xmlns:xlink="http://www.w3.org/1999/xlink" x="0px" y="0px"
	 viewBox="0 0 60 60" style="enable-background:new 0 0 60 60;" xml:space="preserve">
<g>
	<path d="M56.17,2.5H3.5c-1.1,0-2,0.9-2,2V34c0,6.35,5.15,11.5,11.5,11.5h11.5v9.05c0,1.9,2.4,2.73,3.57,1.24l8.09-10.29h20.01
		c1.1,0,2-0.9,2-2v-39C58.17,3.4,57.28,2.5,56.17,2.5z M55.17,42.5H34.7l-7.2,9.16V42.5H13c-4.69,0-8.5-3.81-8.5-8.5V5.5h50.67V42.5
		z"/>
	<path d="M15.5,16.5h33c0.28,0,0.5-0.22,0.5-0.5v-2c0-0.28-0.22-0.5-0.5-0.5h-35c-0.28,0-0.5,0.22-0.5,0.5
		C13,15.38,14.12,16.5,15.5,16.5z"/>
	<path d="M15.5,22.5h33c0.28,0,0.5-0.22,0.5-0.5v-2c0-0.28-0.22-0.5-0.5-0.5h-35c-0.28,0-0.5,0.22-0.5,0.5
		C13,21.38,14.12,22.5,15.5,22.5z"/>
	<path d="M15.5,28.5h33c0.28,0,0.5-0.22,0.5-0.5v-2c0-0.28-0.22-0.5-0.5-0.5h-35c-0.28,0-0.5,0.22-0.5,0.5
		C13,27.38,14.12,28.5,15.5,28.5z"/>
	<path d="M15.5,34.5h33c0.28,0,0.5-0.22,0.5-0.5v-2c0-0.28-0.22-0.5-0.5-0.5h-35c-0.28,0-0.5,0.22-0.5,0.5
		C13,33.38,14.12,34.5,15.5,34.5z"/>
</g>
</svg>
