<svg version="1.1" baseProfile="tiny" id="Ebene_1" xmlns="http://www.w3.org/2000/svg" xmlns:xlink="http://www.w3.org/1999/xlink"
	 x="0px" y="0px" viewBox="0 0 60 60" xml:space="preserve">
<polygon id="path-1_1_" points="60,23.8 59.1,21.3 40,18.4 31.4,0 28.6,0 20,18.4 0.9,21.3 0,23.8 14,38.2 10.7,58.4 12.9,60
	30,50.5 47.1,60 49.3,58.4 46,38.2 "/>
</svg>
